#label,probability,time,timeout,k_1,p_guess,k_2,m,l,n,gf,lenslice,template,specs
RS_ratio3_aontlt-iscc,1.0555616138441858E-153,64.021,120m,229,0.00390625,229,5,1,255,8,8,templates/aontlt-iscc.prism.template,spec/confidentiality.props
RS_ratio3_aontlt-iscc,7.914852822741279E-156,63.371,120m,229,1.52587890625e-05,229,5,2,255,8,16,templates/aontlt-iscc.prism.template,spec/confidentiality.props
RS_ratio3_aontlt-iscc,7.772622282131191E-156,65.778,120m,229,1e-06,229,5,3,255,8,24,templates/aontlt-iscc.prism.template,spec/confidentiality.props
RS_ratio3_aontlt-iscc,7.772622282131191E-156,63.795,120m,229,1e-06,229,5,4,255,8,32,templates/aontlt-iscc.prism.template,spec/confidentiality.props
RS_ratio3_aontlt-iscc,7.772622282131191E-156,63.735,120m,229,1e-06,229,5,5,255,8,40,templates/aontlt-iscc.prism.template,spec/confidentiality.props
RS_ratio3_aontlt-iscc,7.772622282131191E-156,63.771,120m,229,1e-06,229,5,6,255,8,48,templates/aontlt-iscc.prism.template,spec/confidentiality.props
RS_ratio3_aontlt-iscc,7.772622282131191E-156,65.86,120m,229,1e-06,229,5,7,255,8,56,templates/aontlt-iscc.prism.template,spec/confidentiality.props
RS_ratio3_aontlt-iscc,7.772622282131191E-156,65.520,120m,229,1e-06,229,5,8,255,8,64,templates/aontlt-iscc.prism.template,spec/confidentiality.props
RS_ratio3_aontlt-iscc,7.772622282131191E-156,63.671,120m,229,1e-06,229,5,9,255,8,72,templates/aontlt-iscc.prism.template,spec/confidentiality.props
RS_ratio3_aontlt-iscc,7.772622282131191E-156,65.557,120m,229,1e-06,229,5,10,255,8,80,templates/aontlt-iscc.prism.template,spec/confidentiality.props
RS_ratio3_aontlt-iscc,7.772622282131191E-156,65.281,120m,229,1e-06,229,5,11,255,8,88,templates/aontlt-iscc.prism.template,spec/confidentiality.props
RS_ratio3_aontlt-iscc,7.772622282131191E-156,65.375,120m,229,1e-06,229,5,12,255,8,96,templates/aontlt-iscc.prism.template,spec/confidentiality.props
RS_ratio3_aontlt-iscc,7.772622282131191E-156,63.393,120m,229,1e-06,229,5,13,255,8,104,templates/aontlt-iscc.prism.template,spec/confidentiality.props
RS_ratio3_aontlt-iscc,7.772622282131191E-156,65.181,120m,229,1e-06,229,5,14,255,8,112,templates/aontlt-iscc.prism.template,spec/confidentiality.props
RS_ratio3_aontlt-iscc,7.772622282131191E-156,63.410,120m,229,1e-06,229,5,15,255,8,120,templates/aontlt-iscc.prism.template,spec/confidentiality.props
RS_ratio3_aontlt-iscc,7.772622282131191E-156,66.420,120m,229,1e-06,229,5,16,255,8,128,templates/aontlt-iscc.prism.template,spec/confidentiality.props
RS_ratio3_aontlt-iscc,7.772622282131191E-156,64.175,120m,229,1e-06,229,5,17,255,8,136,templates/aontlt-iscc.prism.template,spec/confidentiality.props
RS_ratio3_aontlt-iscc,7.772622282131191E-156,65.134,120m,229,1e-06,229,5,18,255,8,144,templates/aontlt-iscc.prism.template,spec/confidentiality.props
RS_ratio3_aontlt-iscc,7.772622282131191E-156,65.531,120m,229,1e-06,229,5,19,255,8,152,templates/aontlt-iscc.prism.template,spec/confidentiality.props
RS_ratio3_aontlt-iscc,7.772622282131191E-156,63.360,120m,229,1e-06,229,5,20,255,8,160,templates/aontlt-iscc.prism.template,spec/confidentiality.props
LT_ratio1_aontlt-iscc,0.9134748999055562,245.843,120m,127,0.5,178,5,1,255,1,1,templates/aontlt-iscc.prism.template,spec/confidentiality.props
LT_ratio1_aontlt-iscc,5.515574640269488E-7,246.359,120m,127,0.25,178,5,2,255,1,2,templates/aontlt-iscc.prism.template,spec/confidentiality.props
LT_ratio1_aontlt-iscc,5.161596465893559E-18,245.895,120m,127,0.125,178,5,3,255,1,3,templates/aontlt-iscc.prism.template,spec/confidentiality.props
LT_ratio1_aontlt-iscc,3.7897784439541016E-27,245.742,120m,127,0.0625,178,5,4,255,1,4,templates/aontlt-iscc.prism.template,spec/confidentiality.props
LT_ratio1_aontlt-iscc,4.038704098051509E-33,245.881,120m,127,0.03125,178,5,5,255,1,5,templates/aontlt-iscc.prism.template,spec/confidentiality.props
LT_ratio1_aontlt-iscc,1.4202183333350517E-36,245.239,120m,127,0.015625,178,5,6,255,1,6,templates/aontlt-iscc.prism.template,spec/confidentiality.props
LT_ratio1_aontlt-iscc,1.9375162591731867E-38,244.761,120m,127,0.0078125,178,5,7,255,1,7,templates/aontlt-iscc.prism.template,spec/confidentiality.props
LT_ratio1_aontlt-iscc,2.074237775746302E-39,247.851,120m,127,0.00390625,178,5,8,255,1,8,templates/aontlt-iscc.prism.template,spec/confidentiality.props
LT_ratio1_aontlt-iscc,6.633544471576888E-40,244.505,120m,127,0.001953125,178,5,9,255,1,9,templates/aontlt-iscc.prism.template,spec/confidentiality.props
LT_ratio1_aontlt-iscc,3.729478060627967E-40,252.043,120m,127,0.0009765625,178,5,10,255,1,10,templates/aontlt-iscc.prism.template,spec/confidentiality.props
LT_ratio1_aontlt-iscc,2.7922614574170837E-40,245.042,120m,127,0.00048828125,178,5,11,255,1,11,templates/aontlt-iscc.prism.template,spec/confidentiality.props
LT_ratio1_aontlt-iscc,2.415173287275849E-40,244.600,120m,127,0.000244140625,178,5,12,255,1,12,templates/aontlt-iscc.prism.template,spec/confidentiality.props
LT_ratio1_aontlt-iscc,2.245969366039133E-40,245.390,120m,127,0.0001220703125,178,5,13,255,1,13,templates/aontlt-iscc.prism.template,spec/confidentiality.props
LT_ratio1_aontlt-iscc,2.1658153855777255E-40,245.977,120m,127,6.103515625e-05,178,5,14,255,1,14,templates/aontlt-iscc.prism.template,spec/confidentiality.props
LT_ratio1_aontlt-iscc,2.1268051128554263E-40,245.541,120m,127,3.0517578125e-05,178,5,15,255,1,15,templates/aontlt-iscc.prism.template,spec/confidentiality.props
LT_ratio1_aontlt-iscc,2.1075611800124595E-40,246.102,120m,127,1.52587890625e-05,178,5,16,255,1,16,templates/aontlt-iscc.prism.template,spec/confidentiality.props
LT_ratio1_aontlt-iscc,2.0980038411720288E-40,245.105,120m,127,7.62939453125e-06,178,5,17,255,1,17,templates/aontlt-iscc.prism.template,spec/confidentiality.props
LT_ratio1_aontlt-iscc,2.093241245174413E-40,245.293,120m,127,3.81469726562e-06,178,5,18,255,1,18,templates/aontlt-iscc.prism.template,spec/confidentiality.props
LT_ratio1_aontlt-iscc,2.0908639551400092E-40,246.295,120m,127,1.90734863281e-06,178,5,19,255,1,19,templates/aontlt-iscc.prism.template,spec/confidentiality.props
LT_ratio1_aontlt-iscc,2.0897339864204842E-40,244.526,120m,127,1e-06,178,5,20,255,1,20,templates/aontlt-iscc.prism.template,spec/confidentiality.props
LT_ratio3_aontlt-iscc,2.981223944597043E-6,196.225,120m,178,0.5,229,5,1,255,1,1,templates/aontlt-iscc.prism.template,spec/confidentiality.props
LT_ratio3_aontlt-iscc,5.096536998184394E-29,197.014,120m,178,0.25,229,5,2,255,1,2,templates/aontlt-iscc.prism.template,spec/confidentiality.props
LT_ratio3_aontlt-iscc,7.915006163634772E-51,197.455,120m,178,0.125,229,5,3,255,1,3,templates/aontlt-iscc.prism.template,spec/confidentiality.props
LT_ratio3_aontlt-iscc,1.5471270536243922E-66,195.887,120m,178,0.0625,229,5,4,255,1,4,templates/aontlt-iscc.prism.template,spec/confidentiality.props
LT_ratio3_aontlt-iscc,2.6763514933598343E-76,196.753,120m,178,0.03125,229,5,5,255,1,5,templates/aontlt-iscc.prism.template,spec/confidentiality.props
LT_ratio3_aontlt-iscc,8.049972721728746E-82,196.185,120m,178,0.015625,229,5,6,255,1,6,templates/aontlt-iscc.prism.template,spec/confidentiality.props
LT_ratio3_aontlt-iscc,9.012884922707496E-85,195.690,120m,178,0.0078125,229,5,7,255,1,7,templates/aontlt-iscc.prism.template,spec/confidentiality.props
LT_ratio3_aontlt-iscc,2.6746129376137768E-86,195.662,120m,178,0.00390625,229,5,8,255,1,8,templates/aontlt-iscc.prism.template,spec/confidentiality.props
LT_ratio3_aontlt-iscc,4.464539944504376E-87,196.852,120m,178,0.001953125,229,5,9,255,1,9,templates/aontlt-iscc.prism.template,spec/confidentiality.props
LT_ratio3_aontlt-iscc,1.809371963948146E-87,198.077,120m,178,0.0009765625,229,5,10,255,1,10,templates/aontlt-iscc.prism.template,spec/confidentiality.props
LT_ratio3_aontlt-iscc,1.1495176756900327E-87,196.840,120m,178,0.00048828125,229,5,11,255,1,11,templates/aontlt-iscc.prism.template,spec/confidentiality.props
LT_ratio3_aontlt-iscc,9.157695538691988E-88,196.127,120m,178,0.000244140625,229,5,12,255,1,12,templates/aontlt-iscc.prism.template,spec/confidentiality.props
LT_ratio3_aontlt-iscc,8.172698149404705E-88,197.267,120m,178,0.0001220703125,229,5,13,255,1,13,templates/aontlt-iscc.prism.template,spec/confidentiality.props
LT_ratio3_aontlt-iscc,7.720422399246042E-88,196.667,120m,178,6.103515625e-05,229,5,14,255,1,14,templates/aontlt-iscc.prism.template,spec/confidentiality.props
LT_ratio3_aontlt-iscc,7.503698130936635E-88,196.961,120m,178,3.0517578125e-05,229,5,15,255,1,15,templates/aontlt-iscc.prism.template,spec/confidentiality.props
LT_ratio3_aontlt-iscc,7.397613254865882E-88,196.866,120m,178,1.52587890625e-05,229,5,16,255,1,16,templates/aontlt-iscc.prism.template,spec/confidentiality.props
LT_ratio3_aontlt-iscc,7.345130860139974E-88,196.753,120m,178,7.62939453125e-06,229,5,17,255,1,17,templates/aontlt-iscc.prism.template,spec/confidentiality.props
LT_ratio3_aontlt-iscc,7.31902852979508E-88,195.467,120m,178,3.81469726562e-06,229,5,18,255,1,18,templates/aontlt-iscc.prism.template,spec/confidentiality.props
LT_ratio3_aontlt-iscc,7.306011939334246E-88,195.899,120m,178,1.90734863281e-06,229,5,19,255,1,19,templates/aontlt-iscc.prism.template,spec/confidentiality.props
LT_ratio3_aontlt-iscc,7.299827865245319E-88,195.502,120m,178,1e-06,229,5,20,255,1,20,templates/aontlt-iscc.prism.template,spec/confidentiality.props
LT_ratio2_aontlt-iscc,0.06391271609520968,228.391,120m,153,0.5,204,5,1,255,1,1,templates/aontlt-iscc.prism.template,spec/confidentiality.props
LT_ratio2_aontlt-iscc,5.489626219447779E-16,230.103,120m,153,0.25,204,5,2,255,1,2,templates/aontlt-iscc.prism.template,spec/confidentiality.props
LT_ratio2_aontlt-iscc,1.8285033828356562E-32,233.175,120m,153,0.125,204,5,3,255,1,3,templates/aontlt-iscc.prism.template,spec/confidentiality.props
LT_ratio2_aontlt-iscc,6.142759228543078E-45,233.338,120m,153,0.0625,204,5,4,255,1,4,templates/aontlt-iscc.prism.template,spec/confidentiality.props
LT_ratio2_aontlt-iscc,7.738909592973898E-53,229.188,120m,153,0.03125,204,5,5,255,1,5,templates/aontlt-iscc.prism.template,spec/confidentiality.props
LT_ratio2_aontlt-iscc,2.4134016426732512E-57,230.154,120m,153,0.015625,204,5,6,255,1,6,templates/aontlt-iscc.prism.template,spec/confidentiality.props
LT_ratio2_aontlt-iscc,9.224069564361496E-60,229.818,120m,153,0.0078125,204,5,7,255,1,7,templates/aontlt-iscc.prism.template,spec/confidentiality.props
LT_ratio2_aontlt-iscc,5.1396023041170014E-61,227.940,120m,153,0.00390625,204,5,8,255,1,8,templates/aontlt-iscc.prism.template,spec/confidentiality.props
LT_ratio2_aontlt-iscc,1.1805691026079702E-61,229.671,120m,153,0.001953125,204,5,9,255,1,9,templates/aontlt-iscc.prism.template,spec/confidentiality.props
LT_ratio2_aontlt-iscc,5.618728993722971E-62,228.086,120m,153,0.0009765625,204,5,10,255,1,10,templates/aontlt-iscc.prism.template,spec/confidentiality.props
LT_ratio2_aontlt-iscc,3.8693973557921426E-62,234.205,120m,153,0.00048828125,204,5,11,255,1,11,templates/aontlt-iscc.prism.template,spec/confidentiality.props
LT_ratio2_aontlt-iscc,3.2096133778712306E-62,230.186,120m,153,0.000244140625,204,5,12,255,1,12,templates/aontlt-iscc.prism.template,spec/confidentiality.props
LT_ratio2_aontlt-iscc,2.9228663460470955E-62,229.602,120m,153,0.0001220703125,204,5,13,255,1,13,templates/aontlt-iscc.prism.template,spec/confidentiality.props
LT_ratio2_aontlt-iscc,2.789169710921488E-62,232.172,120m,153,6.103515625e-05,204,5,14,255,1,14,templates/aontlt-iscc.prism.template,spec/confidentiality.props
LT_ratio2_aontlt-iscc,2.724613449794463E-62,228.808,120m,153,3.0517578125e-05,204,5,15,255,1,15,templates/aontlt-iscc.prism.template,spec/confidentiality.props
LT_ratio2_aontlt-iscc,2.692893107694615E-62,229.868,120m,153,1.52587890625e-05,204,5,16,255,1,16,templates/aontlt-iscc.prism.template,spec/confidentiality.props
LT_ratio2_aontlt-iscc,2.677170520967434E-62,229.235,120m,153,7.62939453125e-06,204,5,17,255,1,17,templates/aontlt-iscc.prism.template,spec/confidentiality.props
LT_ratio2_aontlt-iscc,2.6693433933171193E-62,233.081,120m,153,3.81469726562e-06,204,5,18,255,1,18,templates/aontlt-iscc.prism.template,spec/confidentiality.props
LT_ratio2_aontlt-iscc,2.665438342278137E-62,229.693,120m,153,1.90734863281e-06,204,5,19,255,1,19,templates/aontlt-iscc.prism.template,spec/confidentiality.props
LT_ratio2_aontlt-iscc,2.663582651350581E-62,229.446,120m,153,1e-06,204,5,20,255,1,20,templates/aontlt-iscc.prism.template,spec/confidentiality.props
RS_ratio1_aontlt-iscc,1.1876164248258069E-84,156.159,120m,178,0.00390625,178,5,1,255,8,8,templates/aontlt-iscc.prism.template,spec/confidentiality.props
RS_ratio1_aontlt-iscc,3.2984094788143486E-86,160.918,120m,178,1.52587890625e-05,178,5,2,255,8,16,templates/aontlt-iscc.prism.template,spec/confidentiality.props
RS_ratio1_aontlt-iscc,3.2548585730468675E-86,160.411,120m,178,1e-06,178,5,3,255,8,24,templates/aontlt-iscc.prism.template,spec/confidentiality.props
RS_ratio1_aontlt-iscc,3.2548585730468675E-86,156.506,120m,178,1e-06,178,5,4,255,8,32,templates/aontlt-iscc.prism.template,spec/confidentiality.props
RS_ratio1_aontlt-iscc,3.2548585730468675E-86,160.260,120m,178,1e-06,178,5,5,255,8,40,templates/aontlt-iscc.prism.template,spec/confidentiality.props
RS_ratio1_aontlt-iscc,3.2548585730468675E-86,156.753,120m,178,1e-06,178,5,6,255,8,48,templates/aontlt-iscc.prism.template,spec/confidentiality.props
RS_ratio1_aontlt-iscc,3.2548585730468675E-86,158.076,120m,178,1e-06,178,5,7,255,8,56,templates/aontlt-iscc.prism.template,spec/confidentiality.props
RS_ratio1_aontlt-iscc,3.2548585730468675E-86,156.525,120m,178,1e-06,178,5,8,255,8,64,templates/aontlt-iscc.prism.template,spec/confidentiality.props
RS_ratio1_aontlt-iscc,3.2548585730468675E-86,156.104,120m,178,1e-06,178,5,9,255,8,72,templates/aontlt-iscc.prism.template,spec/confidentiality.props
RS_ratio1_aontlt-iscc,3.2548585730468675E-86,160.387,120m,178,1e-06,178,5,10,255,8,80,templates/aontlt-iscc.prism.template,spec/confidentiality.props
RS_ratio1_aontlt-iscc,3.2548585730468675E-86,160.757,120m,178,1e-06,178,5,11,255,8,88,templates/aontlt-iscc.prism.template,spec/confidentiality.props
RS_ratio1_aontlt-iscc,3.2548585730468675E-86,162.368,120m,178,1e-06,178,5,12,255,8,96,templates/aontlt-iscc.prism.template,spec/confidentiality.props
RS_ratio1_aontlt-iscc,3.2548585730468675E-86,160.030,120m,178,1e-06,178,5,13,255,8,104,templates/aontlt-iscc.prism.template,spec/confidentiality.props
RS_ratio1_aontlt-iscc,3.2548585730468675E-86,156.948,120m,178,1e-06,178,5,14,255,8,112,templates/aontlt-iscc.prism.template,spec/confidentiality.props
RS_ratio1_aontlt-iscc,3.2548585730468675E-86,160.469,120m,178,1e-06,178,5,15,255,8,120,templates/aontlt-iscc.prism.template,spec/confidentiality.props
RS_ratio1_aontlt-iscc,3.2548585730468675E-86,156.641,120m,178,1e-06,178,5,16,255,8,128,templates/aontlt-iscc.prism.template,spec/confidentiality.props
RS_ratio1_aontlt-iscc,3.2548585730468675E-86,159.507,120m,178,1e-06,178,5,17,255,8,136,templates/aontlt-iscc.prism.template,spec/confidentiality.props
RS_ratio1_aontlt-iscc,3.2548585730468675E-86,160.557,120m,178,1e-06,178,5,18,255,8,144,templates/aontlt-iscc.prism.template,spec/confidentiality.props
RS_ratio1_aontlt-iscc,3.2548585730468675E-86,159.833,120m,178,1e-06,178,5,19,255,8,152,templates/aontlt-iscc.prism.template,spec/confidentiality.props
RS_ratio1_aontlt-iscc,3.2548585730468675E-86,156.833,120m,178,1e-06,178,5,20,255,8,160,templates/aontlt-iscc.prism.template,spec/confidentiality.props
RS_ratio2_aontlt-iscc,2.5583376104531085E-116,117.454,120m,204,0.00390625,204,5,1,255,8,8,templates/aontlt-iscc.prism.template,spec/confidentiality.props
RS_ratio2_aontlt-iscc,3.6452696991507488E-118,117.195,120m,204,1.52587890625e-05,204,5,2,255,8,16,templates/aontlt-iscc.prism.template,spec/confidentiality.props
RS_ratio2_aontlt-iscc,3.5882721906087143E-118,117.463,120m,204,1e-06,204,5,3,255,8,24,templates/aontlt-iscc.prism.template,spec/confidentiality.props
RS_ratio2_aontlt-iscc,3.5882721906087143E-118,116.658,120m,204,1e-06,204,5,4,255,8,32,templates/aontlt-iscc.prism.template,spec/confidentiality.props
RS_ratio2_aontlt-iscc,3.5882721906087143E-118,115.260,120m,204,1e-06,204,5,5,255,8,40,templates/aontlt-iscc.prism.template,spec/confidentiality.props
RS_ratio2_aontlt-iscc,3.5882721906087143E-118,117.139,120m,204,1e-06,204,5,6,255,8,48,templates/aontlt-iscc.prism.template,spec/confidentiality.props
RS_ratio2_aontlt-iscc,3.5882721906087143E-118,117.181,120m,204,1e-06,204,5,7,255,8,56,templates/aontlt-iscc.prism.template,spec/confidentiality.props
RS_ratio2_aontlt-iscc,3.5882721906087143E-118,114.126,120m,204,1e-06,204,5,8,255,8,64,templates/aontlt-iscc.prism.template,spec/confidentiality.props
RS_ratio2_aontlt-iscc,3.5882721906087143E-118,116.889,120m,204,1e-06,204,5,9,255,8,72,templates/aontlt-iscc.prism.template,spec/confidentiality.props
RS_ratio2_aontlt-iscc,3.5882721906087143E-118,114.120,120m,204,1e-06,204,5,10,255,8,80,templates/aontlt-iscc.prism.template,spec/confidentiality.props
RS_ratio2_aontlt-iscc,3.5882721906087143E-118,114.081,120m,204,1e-06,204,5,11,255,8,88,templates/aontlt-iscc.prism.template,spec/confidentiality.props
RS_ratio2_aontlt-iscc,3.5882721906087143E-118,115.242,120m,204,1e-06,204,5,12,255,8,96,templates/aontlt-iscc.prism.template,spec/confidentiality.props
RS_ratio2_aontlt-iscc,3.5882721906087143E-118,113.805,120m,204,1e-06,204,5,13,255,8,104,templates/aontlt-iscc.prism.template,spec/confidentiality.props
RS_ratio2_aontlt-iscc,3.5882721906087143E-118,117.045,120m,204,1e-06,204,5,14,255,8,112,templates/aontlt-iscc.prism.template,spec/confidentiality.props
RS_ratio2_aontlt-iscc,3.5882721906087143E-118,114.326,120m,204,1e-06,204,5,15,255,8,120,templates/aontlt-iscc.prism.template,spec/confidentiality.props
RS_ratio2_aontlt-iscc,3.5882721906087143E-118,116.464,120m,204,1e-06,204,5,16,255,8,128,templates/aontlt-iscc.prism.template,spec/confidentiality.props
RS_ratio2_aontlt-iscc,3.5882721906087143E-118,117.154,120m,204,1e-06,204,5,17,255,8,136,templates/aontlt-iscc.prism.template,spec/confidentiality.props
RS_ratio2_aontlt-iscc,3.5882721906087143E-118,118.167,120m,204,1e-06,204,5,18,255,8,144,templates/aontlt-iscc.prism.template,spec/confidentiality.props
RS_ratio2_aontlt-iscc,3.5882721906087143E-118,114.889,120m,204,1e-06,204,5,19,255,8,152,templates/aontlt-iscc.prism.template,spec/confidentiality.props
RS_ratio2_aontlt-iscc,3.5882721906087143E-118,117.057,120m,204,1e-06,204,5,20,255,8,160,templates/aontlt-iscc.prism.template,spec/confidentiality.props
