=== PARAMETERS START ===
{k: 1, n: 4, specs: spec/anonymity.pctl, template: templates/model.prism.template,
  timeout: 240m}

=== PARAMETERS END ===
PRISM
=====

Version: 4.3
Date: Wed Apr 10 22:17:34 CEST 2019
Hostname: locanda
Memory limits: cudd=20g, java(heap)=17.8g
Command line: prism -javamaxmem 20g -cuddmaxmem 20g -extrareachinfo -maxiters 100000 out/anonimity.batch.out/odd_model.prism_10 out/anonimity.batch.out/odd_anonymity_10_10

Parsing model file "out/anonimity.batch.out/odd_model.prism_10"...

Parsing properties file "out/anonimity.batch.out/odd_anonymity_10_10"...

2 properties:
(1) Pmin=? [ F "done"&outcome=K {"init"&pay>0}{min} ]
(2) Pmax=? [ F "done"&outcome=K {"init"&pay>0}{max} ]

Type:        MDP
Modules:     crypt1 crypt2 crypt3 crypt4 
Variables:   pay coin1 s1 agree1 coin2 s2 agree2 coin3 s3 agree3 coin4 s4 agree4 

---------------------------------------------------------------------

Model checking: Pmin=? [ F "done"&outcome=K {"init"&pay>0}{min} ]

Building model...

Computing reachable states...
Iteration 1: 5 states (21 nodes) (0.00 seconds)
Iteration 2: 45 states (33 nodes) (0.00 seconds)
Iteration 3: 165 states (39 nodes) (0.00 seconds)
Iteration 4: 405 states (116 nodes) (0.00 seconds)
Iteration 5: 805 states (166 nodes) (0.00 seconds)
Iteration 6: 1285 states (228 nodes) (0.00 seconds)
Iteration 7: 1765 states (247 nodes) (0.00 seconds)
Iteration 8: 2085 states (249 nodes) (0.00 seconds)
Iteration 9: 2165 states (207 nodes) (0.00 seconds)

Reachability (BFS): 9 iterations in 0.00 seconds (average 0.000333, setup 0.00)

Time for model construction: 0.024 seconds.

Type:        MDP
States:      2165 (5 initial)
Transitions: 5720
Choices:     4540

Transition matrix: 1881 nodes (3 terminal), 5720 minterms, vars: 19r/19c/4nd

Prob0E: 9 iterations in 0.01 seconds (average 0.000889, setup 0.00)

Prob1A: 3 iterations in 0.00 seconds (average 0.000667, setup 0.00)

yes = 128, no = 1793, maybe = 244

Computing remaining probabilities...
Engine: Hybrid

Building hybrid MTBDD matrices... [nm=4, levels=19, nodes=1881] [88.2 KB]
Adding sparse bits... [levels=19-19, num=4, compact=4/4] [12.3 KB]
Creating vector for yes... [dist=2, compact] [4.2 KB]
Allocating iteration vectors... [3 x 16.9 KB]
TOTAL: [155.4 KB]

Starting iterations...

Iterative method: 7 iterations in 0.00 seconds (average 0.000000, setup 0.00)

States satisfying filter "init"&pay>0: 4

Minimum value over states satisfying filter: 0.125

There are 4 states with (approximately) this value:
433:(1,0,0,0,0,0,0,0,0,0,0,0,0)
866:(2,0,0,0,0,0,0,0,0,0,0,0,0)
1299:(3,0,0,0,0,0,0,0,0,0,0,0,0)
1732:(4,0,0,0,0,0,0,0,0,0,0,0,0)

Time for model checking: 0.013 seconds.

Result: 0.125 (minimum value over states satisfying filter)

---------------------------------------------------------------------

Model checking: Pmax=? [ F "done"&outcome=K {"init"&pay>0}{max} ]

Prob0A: 9 iterations in 0.01 seconds (average 0.000556, setup 0.00)

Prob1E: 12 iterations in 0.00 seconds (average 0.000333, setup 0.00)

yes = 128, no = 1793, maybe = 244

Computing remaining probabilities...
Engine: Hybrid

Building hybrid MTBDD matrices... [nm=4, levels=19, nodes=1881] [88.2 KB]
Adding sparse bits... [levels=19-19, num=4, compact=4/4] [12.3 KB]
Creating vector for yes... [dist=2, compact] [4.2 KB]
Allocating iteration vectors... [3 x 16.9 KB]
TOTAL: [155.4 KB]

Starting iterations...

Iterative method: 5 iterations in 0.00 seconds (average 0.000000, setup 0.00)

States satisfying filter "init"&pay>0: 4

Maximum value over states satisfying filter: 0.125

There are 4 states with (approximately) this value:
433:(1,0,0,0,0,0,0,0,0,0,0,0,0)
866:(2,0,0,0,0,0,0,0,0,0,0,0,0)
1299:(3,0,0,0,0,0,0,0,0,0,0,0,0)
1732:(4,0,0,0,0,0,0,0,0,0,0,0,0)

Time for model checking: 0.008 seconds.

Result: 0.125 (maximum value over states satisfying filter)

