=== PARAMETERS START ===
{k: 1, n: 5, specs: spec/anonymity.pctl, template: templates/model.prism.template,
  timeout: 240m}

=== PARAMETERS END ===
PRISM
=====

Version: 4.3
Date: Wed Apr 10 22:17:35 CEST 2019
Hostname: locanda
Memory limits: cudd=20g, java(heap)=17.8g
Command line: prism -javamaxmem 20g -cuddmaxmem 20g -extrareachinfo -maxiters 100000 out/anonimity.batch.out/odd_model.prism_11 out/anonimity.batch.out/odd_anonymity_11_11

Parsing model file "out/anonimity.batch.out/odd_model.prism_11"...

Parsing properties file "out/anonimity.batch.out/odd_anonymity_11_11"...

2 properties:
(1) Pmin=? [ F "done"&outcome=K {"init"&pay>0}{min} ]
(2) Pmax=? [ F "done"&outcome=K {"init"&pay>0}{max} ]

Type:        MDP
Modules:     crypt1 crypt2 crypt3 crypt4 crypt5 
Variables:   pay coin1 s1 agree1 coin2 s2 agree2 coin3 s3 agree3 coin4 s4 agree4 coin5 s5 agree5 

---------------------------------------------------------------------

Model checking: Pmin=? [ F "done"&outcome=K {"init"&pay>0}{min} ]

Building model...

Computing reachable states...
Iteration 1: 6 states (29 nodes) (0.00 seconds)
Iteration 2: 66 states (49 nodes) (0.00 seconds)
Iteration 3: 306 states (62 nodes) (0.00 seconds)
Iteration 4: 906 states (203 nodes) (0.00 seconds)
Iteration 5: 2106 states (337 nodes) (0.00 seconds)
Iteration 6: 3978 states (485 nodes) (0.00 seconds)
Iteration 7: 6378 states (581 nodes) (0.00 seconds)
Iteration 8: 8778 states (641 nodes) (0.00 seconds)
Iteration 9: 10698 states (603 nodes) (0.00 seconds)
Iteration 10: 11658 states (541 nodes) (0.00 seconds)
Iteration 11: 11850 states (429 nodes) (0.00 seconds)

Reachability (BFS): 11 iterations in 0.01 seconds (average 0.000636, setup 0.00)

Time for model construction: 0.031 seconds.

Type:        MDP
States:      11850 (6 initial)
Transitions: 38772
Choices:     30702

Transition matrix: 4535 nodes (3 terminal), 38772 minterms, vars: 28r/28c/5nd

Prob0E: 11 iterations in 0.01 seconds (average 0.000727, setup 0.00)

Prob1A: 3 iterations in 0.00 seconds (average 0.000667, setup 0.00)

yes = 64, no = 11605, maybe = 181

Computing remaining probabilities...
Engine: Hybrid

Building hybrid MTBDD matrices... [nm=5, levels=28, nodes=2448] [114.8 KB]
Adding sparse bits... [levels=28-28, num=5, compact=5/5] [61.3 KB]
Creating vector for yes... [dist=2, compact] [23.2 KB]
Allocating iteration vectors... [3 x 92.6 KB]
TOTAL: [476.9 KB]

Starting iterations...

Iterative method: 9 iterations in 0.00 seconds (average 0.000222, setup 0.00)

States satisfying filter "init"&pay>0: 5

Minimum value over states satisfying filter: 0.0

There are 5 states with (approximately) this value:
1975:(1,0,0,0,0,0,0,0,0,0,0,0,0,0,0,0)
3950:(2,0,0,0,0,0,0,0,0,0,0,0,0,0,0,0)
5925:(3,0,0,0,0,0,0,0,0,0,0,0,0,0,0,0)
7900:(4,0,0,0,0,0,0,0,0,0,0,0,0,0,0,0)
9875:(5,0,0,0,0,0,0,0,0,0,0,0,0,0,0,0)

Time for model checking: 0.023 seconds.

Result: 0.0 (minimum value over states satisfying filter)

---------------------------------------------------------------------

Model checking: Pmax=? [ F "done"&outcome=K {"init"&pay>0}{max} ]

Prob0A: 11 iterations in 0.01 seconds (average 0.000727, setup 0.00)

Prob1E: 14 iterations in 0.01 seconds (average 0.000357, setup 0.00)

yes = 64, no = 11605, maybe = 181

Computing remaining probabilities...
Engine: Hybrid

Building hybrid MTBDD matrices... [nm=5, levels=28, nodes=2448] [114.8 KB]
Adding sparse bits... [levels=28-28, num=5, compact=5/5] [61.3 KB]
Creating vector for yes... [dist=2, compact] [23.2 KB]
Allocating iteration vectors... [3 x 92.6 KB]
TOTAL: [476.9 KB]

Starting iterations...

Iterative method: 6 iterations in 0.00 seconds (average 0.000167, setup 0.00)

States satisfying filter "init"&pay>0: 5

Maximum value over states satisfying filter: 0.0

There are 5 states with (approximately) this value:
1975:(1,0,0,0,0,0,0,0,0,0,0,0,0,0,0,0)
3950:(2,0,0,0,0,0,0,0,0,0,0,0,0,0,0,0)
5925:(3,0,0,0,0,0,0,0,0,0,0,0,0,0,0,0)
7900:(4,0,0,0,0,0,0,0,0,0,0,0,0,0,0,0)
9875:(5,0,0,0,0,0,0,0,0,0,0,0,0,0,0,0)

Time for model checking: 0.015 seconds.

Result: 0.0 (maximum value over states satisfying filter)

